{
  "players": [
    {
      "playerId": "1",
      "firstname": "Byeong-Hun",
      "lastname": "An",
      "country": "kr",
      "age": "25",
      "rank": "51",
      "img": "33361.jpg",
      "group": "10",
      "score": 0
    },{
      "playerId": "2",
      "firstname": "Daniel",
      "lastname": "Berger",
      "country": "us",
      "age": "23",
      "rank": "39",
      "img": "34621.jpg",
      "group": "6",
      "score": 0
    },{
      "playerId": "3",
      "firstname": "Angel",
      "lastname": "Cabrera",
      "country": "ar",
      "age": "47",
      "rank": "680",
      "img": "1525.jpg",
      "group": "11",
      "score": 0
    },{
      "playerId": "4",
      "firstname": "Rafa",
      "lastname": "Cabrera-Bello",
      "country": "es",
      "age": "32",
      "rank": "26",
      "img": "34741.jpg",
      "group": "8",
      "score": 0
    },{
      "playerId": "5",
      "firstname": "Paul",
      "lastname": "Casey",
      "country": "gb-eng",
      "age": "39",
      "rank": "16",
      "img": "6962.jpg",
      "group": "5",
      "score": 0
    },{
      "playerId": "6",
      "firstname": "Roberto",
      "lastname": "Castro",
      "country": "us",
      "age": "31",
      "rank": "85",
      "img": "30681.jpg",
      "group": "14",
      "score": 0
    },{
      "playerId": "7",
      "firstname": "Kevin",
      "lastname": "Chappell",
      "country": "us",
      "age": "26",
      "rank": "42",
      "img": "31627.jpg",
      "group": "13",
      "score": 0
    },{
      "playerId": "8",
      "firstname": "Fred",
      "lastname": "Couples",
      "country": "us",
      "age": "57",
      "rank": "1894",
      "img": "116.jpg",
      "group": "12",
      "score": 0
    },{
      "playerId": "9",
      "firstname": "Brad",
      "lastname": "Dalke",
      "country": "us",
      "age": "19",
      "rank": "1894",
      "img": "34762.jpg",
      "group": "0",
      "score": 0
    },{
      "playerId": "10",
      "firstname": "Jason",
      "lastname": "Day",
      "country": "au",
      "age": "29",
      "rank": "3",
      "img": "24302.jpg",
      "group": "1",
      "score": 0
    },{
      "playerId": "11",
      "firstname": "Jason",
      "lastname": "Dufner",
      "country": "us",
      "age": "39",
      "rank": "65",
      "img": "9286.jpg",
      "group": "9",
      "score": 0
    },{
      "playerId": "12",
      "firstname": "Ernie",
      "lastname": "Els",
      "country": "za",
      "age": "47",
      "rank": "404",
      "img": "121.jpg",
      "group": "12",
      "score": 0
    },{
      "playerId": "13",
      "firstname": "Matthew",
      "lastname": "Fitzpatrick",
      "country": "gb-eng",
      "age": "22",
      "rank": "31",
      "img": "34502.jpg",
      "group": "7",
      "score": 0
    },{
      "playerId": "14",
      "firstname": "Rickie",
      "lastname": "Fowler",
      "country": "us",
      "age": "28",
      "rank": "9",
      "img": "30601.jpg",
      "group": "3",
      "score": 0
    },{
      "playerId": "15",
      "firstname": "Jim",
      "lastname": "Furyk",
      "country": "us",
      "age": "46",
      "rank": "57",
      "img": "130.jpg",
      "group": "10",
      "score": 0
    },{
      "playerId": "16",
      "firstname": "Toto",
      "lastname": "Gana",
      "country": "cl",
      "age": "19",
      "rank": "2000",
      "img": "none",
      "group": "0",
      "score": 0
    },{
      "playerId": "17",
      "firstname": "Sergio",
      "lastname": "Garcia",
      "country": "es",
      "age": "37",
      "rank": "10",
      "img": "2344.jpg",
      "group": "3",
      "score": 0
    },{
      "playerId": "18",
      "firstname": "Branden",
      "lastname": "Grace",
      "country": "za",
      "age": "28",
      "rank": "19",
      "img": "32544.jpg",
      "group": "5",
      "score": 0
    },{
      "playerId": "19",
      "firstname": "Scott",
      "lastname": "Gregory",
      "country": "gb-eng",
      "age": "22",
      "rank": "1894",
      "img": "34763.jpg",
      "group": "0",
      "score": 0
    },{
      "playerId": "20",
      "firstname": "Emiliano",
      "lastname": "Grillo",
      "country": "ar",
      "age": "24",
      "rank": "30",
      "img": "34684.jpg",
      "group": "8",
      "score": 0
    },{
      "playerId": "21",
      "firstname": "Bill",
      "lastname": "Haas",
      "country": "us",
      "age": "34",
      "rank": "47",
      "img": "8762.jpg",
      "group": "8",
      "score": 0
    },{
      "playerId": "22",
      "firstname": "Adam",
      "lastname": "Hadwin",
      "country": "ca",
      "age": "29",
      "rank": "44",
      "img": "34861.jpg",
      "group": "7",
      "score": 0
    },{
      "playerId": "23",
      "firstname": "Stewart",
      "lastname": "Hagestad",
      "country": "us",
      "age": "25",
      "rank": "1987",
      "img": "none",
      "group": "0",
      "score": 0
    },{
      "playerId": "24",
      "firstname": "James",
      "lastname": "Hahn",
      "country": "us",
      "age": "35",
      "rank": "79",
      "img": "34601.jpg",
      "group": "13",
      "score": 0
    },{
      "playerId": "25",
      "firstname": "Tyrrell",
      "lastname": "Hatton",
      "country": "gb-eng",
      "age": "25",
      "rank": "14",
      "img": "34773.jpg",
      "group": "5",
      "score": 0
    },{
      "playerId": "26",
      "firstname": "Charley",
      "lastname": "Hoffman",
      "country": "us",
      "age": "40",
      "rank": "48",
      "img": "3642.jpg",
      "group": "10",
      "score": 0
    },{
      "playerId": "27",
      "firstname": "J.B.",
      "lastname": "Holmes",
      "country": "us",
      "age": "34",
      "rank": "35",
      "img": "19081.jpg",
      "group": "7",
      "score": 0
    },{
      "playerId": "28",
      "firstname": "Mackenzie",
      "lastname": "Hughes",
      "country": "ca",
      "age": "26",
      "rank": "113",
      "img": "34766.jpg",
      "group": "15",
      "score": 0
    },{
      "playerId": "29",
      "firstname": "Billy",
      "lastname": "Hurley III",
      "country": "us",
      "age": "34",
      "rank": "131",
      "img": "25841.jpg",
      "group": "15",
      "score": 0
    },{
      "playerId": "30",
      "firstname": "Yuta",
      "lastname": "Ikeda",
      "country": "jp",
      "age": "31",
      "rank": "41",
      "img": "32542.jpg",
      "group": "14",
      "score": 0
    },{
      "playerId": "31",
      "firstname": "Trevor",
      "lastname": "Immelman",
      "country": "za",
      "age": "37",
      "rank": "1894",
      "img": "2343.jpg",
      "group": "0",
      "score": 0
    },{
      "playerId": "32",
      "firstname": "Zach",
      "lastname": "Johnson",
      "country": "us",
      "age": "41",
      "rank": "50",
      "img": "11981.jpg",
      "group": "5",
      "score": 0
    },{
      "playerId": "33",
      "firstname": "Dustin",
      "lastname": "Johnson",
      "country": "us",
      "age": "32",
      "rank": "1",
      "img": "29801.jpg",
      "group": "1",
      "score": 0
    },{
      "playerId": "34",
      "firstname": "Martin",
      "lastname": "Kaymer",
      "country": "de",
      "age": "32",
      "rank": "46",
      "img": "20305.jpg",
      "group": "8",
      "score": 0
    },{
      "playerId": "35",
      "firstname": "Si Woo",
      "lastname": "Kim",
      "country": "kr",
      "age": "22",
      "rank": "69",
      "img": "30322.jpg",
      "group": "15",
      "score": 0
    },{
      "playerId": "36",
      "firstname": "Kevin",
      "lastname": "Kisner",
      "country": "us",
      "age": "33",
      "rank": "38",
      "img": "33593.jpg",
      "group": "7",
      "score": 0
    },{
      "playerId": "37",
      "firstname": "Soren",
      "lastname": "Kjeldsen",
      "country": "dk",
      "age": "41",
      "rank": "68",
      "img": "1726.jpg",
      "group": "14",
      "score": 0
    },{
      "playerId": "38",
      "firstname": "Russell",
      "lastname": "Knox",
      "country": "gb-sct",
      "age": "31",
      "rank": "21",
      "img": "33742.jpg",
      "group": "9",
      "score": 0
    },{
      "playerId": "39",
      "firstname": "Brooks",
      "lastname": "Koepka",
      "country": "us",
      "age": "26",
      "rank": "24",
      "img": "34564.jpg",
      "group": "4",
      "score": 0
    },{
      "playerId": "40",
      "firstname": "Matt",
      "lastname": "Kuchar",
      "country": "us",
      "age": "38",
      "rank": "20",
      "img": "215.jpg",
      "group": "4",
      "score": 0
    },{
      "playerId": "41",
      "firstname": "Bernhard",
      "lastname": "Langer",
      "country": "de",
      "age": "59",
      "rank": "984",
      "img": "141.jpg",
      "group": "14",
      "score": 0
    },{
      "playerId": "42",
      "firstname": "Marc",
      "lastname": "Leishman",
      "country": "au",
      "age": "33",
      "rank": "32",
      "img": "31723.jpg",
      "group": "7",
      "score": 0
    },{
      "playerId": "43",
      "firstname": "Shane",
      "lastname": "Lowry",
      "country": "ie",
      "age": "29",
      "rank": "59",
      "img": "34565.jpg",
      "group": "9",
      "score": 0
    },{
      "playerId": "44",
      "firstname": "Curtis",
      "lastname": "Luck",
      "country": "au",
      "age": "20",
      "rank": "2001",
      "img": "34761.jpg",
      "group": "0",
      "score": 0
    },{
      "playerId": "45",
      "firstname": "Sandy",
      "lastname": "Lyle",
      "country": "gb-sct",
      "age": "59",
      "rank": "1894",
      "img": "145.jpg",
      "group": "0",
      "score": 0
    },{
      "playerId": "46",
      "firstname": "Hideki",
      "lastname": "Matsuyama",
      "country": "jp",
      "age": "25",
      "rank": "4",
      "img": "33590.jpg",
      "group": "1",
      "score": 0
    },{
      "playerId": "47",
      "firstname": "William",
      "lastname": "McGirt",
      "country": "us",
      "age": "37",
      "rank": "54",
      "img": "33561.jpg",
      "group": "13",
      "score": 0
    },{
      "playerId": "48",
      "firstname": "Rory",
      "lastname": "McIlroy",
      "country": "gb-nir",
      "age": "27",
      "rank": "2",
      "img": "29164.jpg",
      "group": "1",
      "score": 0
    },{
      "playerId": "49",
      "firstname": "Phil",
      "lastname": "Mickelson",
      "country": "us",
      "age": "46",
      "rank": "18",
      "img": "149.jpg",
      "group": "2",
      "score": 0
    },{
      "playerId": "50",
      "firstname": "Larry",
      "lastname": "Mize",
      "country": "us",
      "age": "58",
      "rank": "1394",
      "img": "151.jpg",
      "group": "0",
      "score": 0
    },{
      "playerId": "51",
      "firstname": "Francesco",
      "lastname": "Molinari",
      "country": "it",
      "age": "34",
      "rank": "29",
      "img": "17946.jpg",
      "group": "11",
      "score": 0
    },{
      "playerId": "52",
      "firstname": "Ryan",
      "lastname": "Moore",
      "country": "us",
      "age": "34",
      "rank": "36",
      "img": "16083.jpg",
      "group": "9",
      "score": 0
    },{
      "playerId": "53",
      "firstname": "Kevin",
      "lastname": "Na",
      "country": "us",
      "age": "33",
      "rank": "52",
      "img": "7044.jpg",
      "group": "11",
      "score": 0
    },{
      "playerId": "54",
      "firstname": "Alexander",
      "lastname": "Noren",
      "country": "se",
      "age": "34",
      "rank": "11",
      "img": "19973.jpg",
      "group": "8",
      "score": 0
    },{
      "playerId": "55",
      "firstname": "Sean",
      "lastname": "O'Hair",
      "country": "us",
      "age": "34",
      "rank": "86",
      "img": "9681.jpg",
      "group": "0",
      "score": 0
    },{
      "playerId": "56",
      "firstname": "Mark",
      "lastname": "O'Meara",
      "country": "us",
      "age": "60",
      "rank": "1324",
      "img": "158.jpg",
      "group": "0",
      "score": 0
    },{
      "playerId": "57",
      "firstname": "Jose-Maria",
      "lastname": "Olazabal",
      "country": "es",
      "age": "51",
      "rank": "1882",
      "img": "159.jpg",
      "group": "0",
      "score": 0
    },{
      "playerId": "58",
      "firstname": "Louis",
      "lastname": "Oosthuizen",
      "country": "za",
      "age": "34",
      "rank": "27",
      "img": "13636.jpg",
      "group": "4",
      "score": 0
    },{
      "playerId": "59",
      "firstname": "Rod",
      "lastname": "Pampling",
      "country": "au",
      "age": "47",
      "rank": "145",
      "img": "1558.jpg",
      "group": "14",
      "score": 0
    },{
      "playerId": "60",
      "firstname": "Pat",
      "lastname": "Perez",
      "country": "us",
      "age": "41",
      "rank": "62",
      "img": "6644.jpg",
      "group": "11",
      "score": 0
    },{
      "playerId": "61",
      "firstname": "Scott",
      "lastname": "Piercy",
      "country": "us",
      "age": "38",
      "rank": "43",
      "img": "10825.jpg",
      "group": "11",
      "score": 0
    },{
      "playerId": "62",
      "firstname": "Thomas",
      "lastname": "Pieters",
      "country": "de",
      "age": "25",
      "rank": "34",
      "img": "34799.jpg",
      "group": "5",
      "score": 0
    },{
      "playerId": "63",
      "firstname": "Jon",
      "lastname": "Rahm",
      "country": "es",
      "age": "22",
      "rank": "25",
      "img": "34841.jpg",
      "group": "2",
      "score": 0
    },{
      "playerId": "64",
      "firstname": "Patrick",
      "lastname": "Reed",
      "country": "us",
      "age": "26",
      "rank": "12",
      "img": "34481.jpg",
      "group": "4",
      "score": 0
    },{
      "playerId": "65",
      "firstname": "Justin",
      "lastname": "Rose",
      "country": "gb-eng",
      "age": "36",
      "rank": "13",
      "img": "3185.jpg",
      "group": "2",
      "score": 0
    },{
      "playerId": "66",
      "firstname": "Charl",
      "lastname": "Schwartzel",
      "country": "za",
      "age": "32",
      "rank": "28",
      "img": "13619.jpg",
      "group": "4",
      "score": 0
    },{
      "playerId": "67",
      "firstname": "Adam",
      "lastname": "Scott",
      "country": "au",
      "age": "36",
      "rank": "8",
      "img": "5164.jpg",
      "group": "3",
      "score": 0
    },{
      "playerId": "68",
      "firstname": "",
      "lastname": "",
      "country": "",
      "age": "",
      "rank": "",
      "img": "",
      "group": "0",
      "score": 0
    },{
      "playerId": "69",
      "firstname": "Webb",
      "lastname": "Simpson",
      "country": "us",
      "age": "31",
      "rank": "64",
      "img": "25842.jpg",
      "group": "12",
      "score": 0
    },{
      "playerId": "70",
      "firstname": "Vijay",
      "lastname": "Singh",
      "country": "fj",
      "age": "54",
      "rank": "244",
      "img": "171.jpg",
      "group": "0",
      "score": 0
    },{
      "playerId": "71",
      "firstname": "Brandt",
      "lastname": "Snedeker",
      "country": "us",
      "age": "36",
      "rank": "24",
      "img": "21722.jpg",
      "group": "3",
      "score": 0
    },{
      "playerId": "72",
      "firstname": "Jordan",
      "lastname": "Spieth",
      "country": "us",
      "age": "23",
      "rank": "6",
      "img": "34141.jpg",
      "group": "1",
      "score": 0
    },{
      "playerId": "73",
      "firstname": "Brendan",
      "lastname": "Steele",
      "country": "us",
      "age": "33",
      "rank": "56",
      "img": "33591.jpg",
      "group": "10",
      "score": 0
    },{
      "playerId": "74",
      "firstname": "Henrik",
      "lastname": "Stenson",
      "country": "se",
      "age": "40",
      "rank": "5",
      "img": "8421.jpg",
      "group": "2",
      "score": 0
    },{
      "playerId": "75",
      "firstname": "",
      "lastname": "",
      "country": "",
      "age": "",
      "rank": "",
      "img": "",
      "group": "0",
      "score": 0
    },{
      "playerId": "76",
      "firstname": "Steve",
      "lastname": "Stricker",
      "country": "us",
      "age": "50",
      "rank": "110",
      "img": "175.jpg",
      "group": "13",
      "score": 0
    },{
      "playerId": "77",
      "firstname": "Brian",
      "lastname": "Stuard",
      "country": "us",
      "age": "34",
      "rank": "144",
      "img": "33286.jpg",
      "group": "0",
      "score": 0
    },{
      "playerId": "78",
      "firstname": "Andy",
      "lastname": "Sullivan",
      "country": "gb-eng",
      "age": "30",
      "rank": "58",
      "img": "34702.jpg",
      "group": "10",
      "score": 0
    },{
      "playerId": "79",
      "firstname": "Daniel",
      "lastname": "Summerhays",
      "country": "us",
      "age": "33",
      "rank": "87",
      "img": "11067.jpg",
      "group": "0",
      "score": 0
    },{
      "playerId": "80",
      "firstname": "Hudson",
      "lastname": "Swafford",
      "country": "us",
      "age": "29",
      "rank": "83",
      "img": "34772.jpg",
      "group": "12",
      "score": 0
    },{
      "playerId": "81",
      "firstname": "Justin",
      "lastname": "Thomas",
      "country": "us",
      "age": "23",
      "rank": "7",
      "img": "33161.jpg",
      "group": "2",
      "score": 0
    },{
      "playerId": "82",
      "firstname": "Jhonattan",
      "lastname": "Vegas",
      "country": "ve",
      "age": "32",
      "rank": "61",
      "img": "18621.jpg",
      "group": "13",
      "score": 0
    },{
      "playerId": "83",
      "firstname": "Jimmy",
      "lastname": "Walker",
      "country": "us",
      "age": "38",
      "rank": "22",
      "img": "8385.jpg",
      "group": "6",
      "score": 0
    },{
      "playerId": "84",
      "firstname": "Bubba",
      "lastname": "Watson",
      "country": "us",
      "age": "38",
      "rank": "17",
      "img": "10814.jpg",
      "group": "3",
      "score": 0
    },{
      "playerId": "85",
      "firstname": "Mike",
      "lastname": "Weir",
      "country": "ca",
      "age": "46",
      "rank": "1894",
      "img": "1209.jpg",
      "group": "15",
      "score": 0
    },{
      "playerId": "86",
      "firstname": "Lee",
      "lastname": "Westwood",
      "country": "gb-eng",
      "age": "43",
      "rank": "49",
      "img": "182.jpg",
      "group": "6",
      "score": 0
    },{
      "playerId": "87",
      "firstname": "Bernd",
      "lastname": "Wiesberger",
      "country": "at",
      "age": "31",
      "rank": "40",
      "img": "34642.jpg",
      "group": "12",
      "score": 0
    },{
      "playerId": "88",
      "firstname": "Danny",
      "lastname": "Willett",
      "country": "gb-eng",
      "age": "29",
      "rank": "15",
      "img": "34570.jpg",
      "group": "6",
      "score": 0
    },{
      "playerId": "89",
      "firstname": "Chris",
      "lastname": "Wood",
      "country": "gb-eng",
      "age": "29",
      "rank": "55",
      "img": "31293.jpg",
      "group": "15",
      "score": 0
    },{
      "playerId": "90",
      "firstname": "Gary",
      "lastname": "Woodland",
      "country": "us",
      "age": "32",
      "rank": "37",
      "img": "31661.jpg",
      "group": "6",
      "score": 0
    },{
      "playerId": "91",
      "firstname": "Tiger",
      "lastname": "Woods",
      "country": "us",
      "age": "41",
      "rank": "742",
      "img": "184.jpg",
      "group": "9",
      "score": 0
    },{
      "playerId": "92",
      "firstname": "Ian",
      "lastname": "Woosnam",
      "country": "gb-wls",
      "age": "59",
      "rank": "1894",
      "img": "185.jpg",
      "group": "0",
      "score": 0
    }
  ]
}
